<?xml version="1.0" encoding="utf-8"?>
<!-- Generator: Adobe Illustrator 21.0.0, SVG Export Plug-In . SVG Version: 6.00 Build 0)  -->
<svg version="1.1" id="Layer_1" xmlns="http://www.w3.org/2000/svg" xmlns:xlink="http://www.w3.org/1999/xlink" x="0px" y="0px"
	 viewBox="0 0 20 20" style="enable-background:new 0 0 20 20;" xml:space="preserve">
<style type="text/css">
	.st0{display:none;fill:#CFD8DC;}
	.st1{fill:#90A4AE;}
</style>
<path id="icon_1_" class="st0" d="M15.121,14.457l-3.476-3.476l2.489-2.489c0.386-0.386-1.33-1.416-3.24-0.794l-3.197-2.94
	c0.622-1.609-0.773-2.704-1.009-2.468L1.581,7.398C1.345,7.634,2.44,9.029,4.049,8.406l2.94,3.197
	c-0.622,1.91,0.408,3.626,0.794,3.24l2.489-2.489l4.871,4.871L15.121,14.457z"/>
<path id="icon_2_" class="st1" d="M15.603,14.213l-3.696-3.696l2.646-2.646c0.411-0.411-1.414-1.506-3.445-0.844L7.71,3.902
	c0.662-1.711-0.821-2.874-1.072-2.623L1.208,6.708C0.958,6.959,2.121,8.441,3.832,7.78l3.125,3.399
	c-0.662,2.03,0.433,3.855,0.844,3.445l2.646-2.646l5.178,5.178L15.603,14.213z"/>
</svg>
