<?xml version="1.0" encoding="utf-8"?>
<!-- Generator: Adobe Illustrator 21.0.0, SVG Export Plug-In . SVG Version: 6.00 Build 0)  -->
<svg version="1.1" id="Layer_1" xmlns="http://www.w3.org/2000/svg" xmlns:xlink="http://www.w3.org/1999/xlink" x="0px" y="0px"
	 viewBox="0 0 18 10" style="enable-background:new 0 0 18 10;" xml:space="preserve">
<style type="text/css">
	.st0{display:none;fill:#455A64;}
	.st1{fill:#455A64;}
</style>
<path id="eye_open_3_" class="st0" d="M1.889,7.468c-0.254,0.491-0.854,0.684-1.348,0.43c-0.49-0.253-0.683-0.856-0.43-1.347
	C1.838,3.205,5.243,1.128,9,1.128c3.757,0,7.162,2.078,8.889,5.423c0.253,0.491,0.061,1.094-0.43,1.347
	c-0.493,0.254-1.094,0.061-1.348-0.43C14.729,4.791,12.005,3.128,9,3.128C5.995,3.128,3.27,4.791,1.889,7.468z M8.981,4.652
	c-1.165,0-2.11,0.945-2.11,2.11s0.945,2.11,2.11,2.11c1.166,0,2.11-0.945,2.11-2.11S10.147,4.652,8.981,4.652z"/>
<path id="eye_open_1_" class="st1" d="M9,6.441c3.005,0,5.729-1.663,7.111-4.34c0.254-0.491,0.854-0.684,1.348-0.43
	c0.49,0.253,0.683,0.856,0.43,1.347C16.162,6.363,12.757,8.441,9,8.441c-3.757,0-7.162-2.078-8.889-5.423
	c-0.253-0.491-0.061-1.094,0.43-1.347c0.493-0.254,1.094-0.061,1.348,0.43C3.27,4.778,5.995,6.441,9,6.441z"/>
</svg>
